[2021-04-09 14:38:11.945] [info]  Checking for update
[2021-04-09 14:38:11.978] [info]  Generated new staging user ID: f0fc3300-a743-5fc4-9de2-4f5acadc1af4
[2021-04-09 14:38:12.384] [info]  Update for version 14.5.1 is not available (latest version: 14.5.1, downgrade is disallowed).
[2021-04-09 14:38:46.671] [info]  Checking for update
[2021-04-09 14:38:46.952] [info]  Update for version 14.5.1 is not available (latest version: 14.5.1, downgrade is disallowed).
